﻿ИдСклада;ИдЯчейки;ИдТранспортнойУпаковки;ИдТовара;ИдЕдиницыИзмерения;ИдХарактеристики;ИдСерии;СерийныйНомер;Марка;КоличествоВНаличии;КоличествоКОтбору;КоличествоКРазмещению;КодТовара
36c1d2e6-f983-4ea6-ae18-201f1d9db692;;;f834dd58-13f0-4061-8b03-6f2d9f135cbf;;;;;;10;;;
fc113246-989c-4aae-91f6-9d85d56ac6b8;;;f834dd58-13f0-4061-8b03-6f2d9f135cbf;;;;;;9;;;
36c1d2e6-f983-4ea6-ae18-201f1d9db692;;;dd0d301b-5185-4104-9c3a-7ddc3a831e50;;90c5544b-d3a8-11e4-9423-e0cb4ed5eed4;;;;8;;;
36c1d2e6-f983-4ea6-ae18-201f1d9db692;;;dd0d301b-5185-4104-9c3a-7ddc3a831e50;;e5a4c316-a659-11dd-acee-0015e9b8c48d;;;;1;;;
36c1d2e6-f983-4ea6-ae18-201f1d9db692;;;549df872-379c-45bf-9b22-363cded95790;;;;;;41;;;
36c1d2e6-f983-4ea6-ae18-201f1d9db692;;;aebd4815-7bdb-4eaa-b840-a0d30ab0ffe5;;90c55448-d3a8-11e4-9423-e0cb4ed5eed4;;;;5;;;
36c1d2e6-f983-4ea6-ae18-201f1d9db692;;;7aad7f73-40e2-4028-8063-c7cb12490117;;90c55448-d3a8-11e4-9423-e0cb4ed5eed4;;;;8;;;
36c1d2e6-f983-4ea6-ae18-201f1d9db692;;;4daa253d-06d1-40bb-bd0a-98d74f4a901a;;ad5de1b6-ca90-11dd-ad02-0015e9b8c48d;;;;9;;;
36c1d2e6-f983-4ea6-ae18-201f1d9db692;;;6c1bee3b-dd0c-4be5-99ce-3f6c6fd5e143;;;;;;9;;;
36c1d2e6-f983-4ea6-ae18-201f1d9db692;;;9dc71798-8463-457e-b352-7a0585365c0b;;;;;;50;;;
fc113246-989c-4aae-91f6-9d85d56ac6b8;;;9dc71798-8463-457e-b352-7a0585365c0b;;;;;;55;;;
36c1d2e6-f983-4ea6-ae18-201f1d9db692;;;8b17ce14-4a88-48dc-ada5-57e466a31f59;;;;;;70;;;
36c1d2e6-f983-4ea6-ae18-201f1d9db692;;;bdcbae33-f7af-4e09-869a-197627f3a229;;;;;;29.15;;;
36c1d2e6-f983-4ea6-ae18-201f1d9db692;;;cafdbc5a-7e98-4525-97c9-5270551e4421;;;;;;37;;;
36c1d2e6-f983-4ea6-ae18-201f1d9db692;;;4e532a70-a85e-412c-a289-b935df84da61;;;;;;92;;;
36c1d2e6-f983-4ea6-ae18-201f1d9db692;;;3e9ee31c-5ff6-4ca3-889b-d7330de4ce2d;;;;;;120;;;
36c1d2e6-f983-4ea6-ae18-201f1d9db692;;;697b6490-3453-4a86-b3a4-d05172213c81;;;;;;9;;;
fc113246-989c-4aae-91f6-9d85d56ac6b8;;;697b6490-3453-4a86-b3a4-d05172213c81;;;;;;4;;;
fc113246-989c-4aae-91f6-9d85d56ac6b8;f5cda849-f2e5-4d79-ba3e-d206baeb488a;;f834dd58-13f0-4061-8b03-6f2d9f135cbf;db206d48-e210-4a6b-b80a-75b7c1ec6ad0;;;;;5;3;2;
fc113246-989c-4aae-91f6-9d85d56ac6b8;b5219b9e-216c-4d2b-978a-0a8dcaf22cdd;;f834dd58-13f0-4061-8b03-6f2d9f135cbf;db206d48-e210-4a6b-b80a-75b7c1ec6ad0;;;;;7;1;0;
fc113246-989c-4aae-91f6-9d85d56ac6b8;0364b8b4-0b93-4ae0-87f8-1ff5a4772789;;dd0d301b-5185-4104-9c3a-7ddc3a831e50;49486f1a-9987-4f02-906b-8fee5f42956a;90c5544b-d3a8-11e4-9423-e0cb4ed5eed4;;;;12;0;7;
fc113246-989c-4aae-91f6-9d85d56ac6b8;1d00d922-4144-4b95-aeb2-3a3dde86aae7;;aebd4815-7bdb-4eaa-b840-a0d30ab0ffe5;82a4a200-edd5-406d-b918-c15fa4c57be0;90c55448-d3a8-11e4-9423-e0cb4ed5eed4;;;;15;0;4;
fc113246-989c-4aae-91f6-9d85d56ac6b8;a219f94e-1cbc-487e-96fc-db9817035fbf;;aebd4815-7bdb-4eaa-b840-a0d30ab0ffe5;82a4a200-edd5-406d-b918-c15fa4c57be0;90c55448-d3a8-11e4-9423-e0cb4ed5eed4;;;;13;0;2;
fc113246-989c-4aae-91f6-9d85d56ac6b8;b76436c0-3f6f-46db-9461-0c46dbf7848c;;4daa253d-06d1-40bb-bd0a-98d74f4a901a;346ca31c-678e-4f53-93d6-599d33f33b24;ad5de1b6-ca90-11dd-ad02-0015e9b8c48d;;;;10;2;3;
fc113246-989c-4aae-91f6-9d85d56ac6b8;5d76215b-efe3-4aad-b5d4-c73cdb3784ac;;cafdbc5a-7e98-4525-97c9-5270551e4421;c0ee6474-9de1-4b21-8d9c-ba66d181f869;;;;;15;3;2;
fc113246-989c-4aae-91f6-9d85d56ac6b8;0364b8b4-0b93-4ae0-87f8-1ff5a4772789;;4e532a70-a85e-412c-a289-b935df84da61;ff06caac-8792-44c6-b017-160cbdae7206;;;;;17;1;2;
fc113246-989c-4aae-91f6-9d85d56ac6b8;712cce40-3e02-4480-9ff2-9679f9636971;;697b6490-3453-4a86-b3a4-d05172213c81;266e3c86-0aa2-4291-8b9e-bde72f2b6809;;9991e487-1183-49bb-87d3-647ad92854db;;;19;1;0;
36c1d2e6-f983-4ea6-ae18-201f1d9db692;;26e621f6-blk1-433d-9260-f5c1708c9023;yy2a1b23-1234-test-6b6b-eac22a1b2345;yy2a1b23-0aa2-test-6b6b-eac22a1b2345;;;;00000046198464dd00-dN11111111;1;;;
36c1d2e6-f983-4ea6-ae18-201f1d9db692;;26e621f6-blk1-433d-9260-f5c1708c9023;yy2a1b23-1234-test-6b6b-eac22a1b2345;yy2a1b23-0aa2-test-6b6b-eac22a1b2345;;;;00000046198464dd01-dN11111111;1;;;
36c1d2e6-f983-4ea6-ae18-201f1d9db692;;26e621f6-blk1-433d-9260-f5c1708c9023;yy2a1b23-1234-test-6b6b-eac22a1b2345;yy2a1b23-0aa2-test-6b6b-eac22a1b2345;;;;00000046198464dd02-dN11111111;1;;;
36c1d2e6-f983-4ea6-ae18-201f1d9db692;;26e621f6-blk1-433d-9260-f5c1708c9023;yy2a1b23-1234-test-6b6b-eac22a1b2345;yy2a1b23-0aa2-test-6b6b-eac22a1b2345;;;;00000046198464dd03-dN11111111;1;;;
36c1d2e6-f983-4ea6-ae18-201f1d9db692;;26e621f6-blk1-433d-9260-f5c1708c9023;yy2a1b23-1234-test-6b6b-eac22a1b2345;yy2a1b23-0aa2-test-6b6b-eac22a1b2345;;;;00000046198464dd04-dN11111111;1;;;
36c1d2e6-f983-4ea6-ae18-201f1d9db692;;26e621f6-blk1-433d-9260-f5c1708c9023;yy2a1b23-1234-test-6b6b-eac22a1b2345;yy2a1b23-0aa2-test-6b6b-eac22a1b2345;;;;00000046198464dd05-dN11111111;1;;;
36c1d2e6-f983-4ea6-ae18-201f1d9db692;;26e621f6-blk1-433d-9260-f5c1708c9023;yy2a1b23-1234-test-6b6b-eac22a1b2345;yy2a1b23-0aa2-test-6b6b-eac22a1b2345;;;;00000046198464dd06-dN11111111;1;;;
36c1d2e6-f983-4ea6-ae18-201f1d9db692;;26e621f6-blk1-433d-9260-f5c1708c9023;yy2a1b23-1234-test-6b6b-eac22a1b2345;yy2a1b23-0aa2-test-6b6b-eac22a1b2345;;;;00000046198464dd07-dN11111111;1;;;
36c1d2e6-f983-4ea6-ae18-201f1d9db692;;26e621f6-blk1-433d-9260-f5c1708c9023;yy2a1b23-1234-test-6b6b-eac22a1b2345;yy2a1b23-0aa2-test-6b6b-eac22a1b2345;;;;00000046198464dd08-dN11111111;1;;;
36c1d2e6-f983-4ea6-ae18-201f1d9db692;;26e621f6-blk1-433d-9260-f5c1708c9023;yy2a1b23-1234-test-6b6b-eac22a1b2345;yy2a1b23-0aa2-test-6b6b-eac22a1b2345;;;;00000046198464dd09-dN11111111;1;;;
36c1d2e6-f983-4ea6-ae18-201f1d9db692;;26e621f6-blk2-433d-9260-f5c1708c9023;yy2a1b23-1234-test-6b6b-eac22a1b2345;yy2a1b23-0aa2-test-6b6b-eac22a1b2345;;;;00000046198464dd10-dN11111111;1;;;
36c1d2e6-f983-4ea6-ae18-201f1d9db692;;26e621f6-blk2-433d-9260-f5c1708c9023;yy2a1b23-1234-test-6b6b-eac22a1b2345;yy2a1b23-0aa2-test-6b6b-eac22a1b2345;;;;00000046198464dd11-dN11111111;1;;;
36c1d2e6-f983-4ea6-ae18-201f1d9db692;;26e621f6-blk2-433d-9260-f5c1708c9023;yy2a1b23-1234-test-6b6b-eac22a1b2345;yy2a1b23-0aa2-test-6b6b-eac22a1b2345;;;;00000046198464dd12-dN11111111;1;;;
36c1d2e6-f983-4ea6-ae18-201f1d9db692;;26e621f6-blk2-433d-9260-f5c1708c9023;yy2a1b23-1234-test-6b6b-eac22a1b2345;yy2a1b23-0aa2-test-6b6b-eac22a1b2345;;;;00000046198464dd13-dN11111111;1;;;
36c1d2e6-f983-4ea6-ae18-201f1d9db692;;26e621f6-blk2-433d-9260-f5c1708c9023;yy2a1b23-1234-test-6b6b-eac22a1b2345;yy2a1b23-0aa2-test-6b6b-eac22a1b2345;;;;00000046198464dd14-dN11111111;1;;;
36c1d2e6-f983-4ea6-ae18-201f1d9db692;;26e621f6-blk2-433d-9260-f5c1708c9023;yy2a1b23-1234-test-6b6b-eac22a1b2345;yy2a1b23-0aa2-test-6b6b-eac22a1b2345;;;;00000046198464dd15-dN11111111;1;;;
36c1d2e6-f983-4ea6-ae18-201f1d9db692;;26e621f6-blk2-433d-9260-f5c1708c9023;yy2a1b23-1234-test-6b6b-eac22a1b2345;yy2a1b23-0aa2-test-6b6b-eac22a1b2345;;;;00000046198464dd16-dN11111111;1;;;
36c1d2e6-f983-4ea6-ae18-201f1d9db692;;26e621f6-blk2-433d-9260-f5c1708c9023;yy2a1b23-1234-test-6b6b-eac22a1b2345;yy2a1b23-0aa2-test-6b6b-eac22a1b2345;;;;00000046198464dd17-dN11111111;1;;;
36c1d2e6-f983-4ea6-ae18-201f1d9db692;;26e621f6-blk2-433d-9260-f5c1708c9023;yy2a1b23-1234-test-6b6b-eac22a1b2345;yy2a1b23-0aa2-test-6b6b-eac22a1b2345;;;;00000046198464dd18-dN11111111;1;;;
36c1d2e6-f983-4ea6-ae18-201f1d9db692;;26e621f6-blk2-433d-9260-f5c1708c9023;yy2a1b23-1234-test-6b6b-eac22a1b2345;yy2a1b23-0aa2-test-6b6b-eac22a1b2345;;;;00000046198464dd19-dN11111111;1;;;
36c1d2e6-f983-4ea6-ae18-201f1d9db692;;26e621f6-blk3-433d-9260-f5c1708c9023;yy2a1b23-1234-test-6b6b-eac22a1b2345;yy2a1b23-0aa2-test-6b6b-eac22a1b2345;;;;00000046198464dd20-dN11111111;1;;;
36c1d2e6-f983-4ea6-ae18-201f1d9db692;;26e621f6-blk3-433d-9260-f5c1708c9023;yy2a1b23-1234-test-6b6b-eac22a1b2345;yy2a1b23-0aa2-test-6b6b-eac22a1b2345;;;;00000046198464dd21-dN11111111;1;;;
36c1d2e6-f983-4ea6-ae18-201f1d9db692;;26e621f6-blk3-433d-9260-f5c1708c9023;yy2a1b23-1234-test-6b6b-eac22a1b2345;yy2a1b23-0aa2-test-6b6b-eac22a1b2345;;;;00000046198464dd22-dN11111111;1;;;
36c1d2e6-f983-4ea6-ae18-201f1d9db692;;26e621f6-blk3-433d-9260-f5c1708c9023;yy2a1b23-1234-test-6b6b-eac22a1b2345;yy2a1b23-0aa2-test-6b6b-eac22a1b2345;;;;00000046198464dd23-dN11111111;1;;;
36c1d2e6-f983-4ea6-ae18-201f1d9db692;;26e621f6-blk3-433d-9260-f5c1708c9023;yy2a1b23-1234-test-6b6b-eac22a1b2345;yy2a1b23-0aa2-test-6b6b-eac22a1b2345;;;;00000046198464dd24-dN11111111;1;;;
36c1d2e6-f983-4ea6-ae18-201f1d9db692;;26e621f6-blk3-433d-9260-f5c1708c9023;yy2a1b23-1234-test-6b6b-eac22a1b2345;yy2a1b23-0aa2-test-6b6b-eac22a1b2345;;;;00000046198464dd25-dN11111111;1;;;
36c1d2e6-f983-4ea6-ae18-201f1d9db692;;26e621f6-blk3-433d-9260-f5c1708c9023;yy2a1b23-1234-test-6b6b-eac22a1b2345;yy2a1b23-0aa2-test-6b6b-eac22a1b2345;;;;00000046198464dd26-dN11111111;1;;;
36c1d2e6-f983-4ea6-ae18-201f1d9db692;;26e621f6-blk3-433d-9260-f5c1708c9023;yy2a1b23-1234-test-6b6b-eac22a1b2345;yy2a1b23-0aa2-test-6b6b-eac22a1b2345;;;;00000046198464dd27-dN11111111;1;;;
36c1d2e6-f983-4ea6-ae18-201f1d9db692;;26e621f6-blk3-433d-9260-f5c1708c9023;yy2a1b23-1234-test-6b6b-eac22a1b2345;yy2a1b23-0aa2-test-6b6b-eac22a1b2345;;;;00000046198464dd28-dN11111111;1;;;
36c1d2e6-f983-4ea6-ae18-201f1d9db692;;26e621f6-blk3-433d-9260-f5c1708c9023;yy2a1b23-1234-test-6b6b-eac22a1b2345;yy2a1b23-0aa2-test-6b6b-eac22a1b2345;;;;00000046198464dd29-dN11111111;1;;;
36c1d2e6-f983-4ea6-ae18-201f1d9db692;;26e621f6-blk4-433d-9260-f5c1708c9023;yy2a1b23-1234-test-6b6b-eac22a1b2346;yy2a1b23-0aa2-test-6b6b-eac22a1b2346;;;;00000046200068dd30-dN11111111;1;;;
36c1d2e6-f983-4ea6-ae18-201f1d9db692;;26e621f6-blk4-433d-9260-f5c1708c9023;yy2a1b23-1234-test-6b6b-eac22a1b2346;yy2a1b23-0aa2-test-6b6b-eac22a1b2346;;;;00000046200068dd31-dN11111111;1;;;
36c1d2e6-f983-4ea6-ae18-201f1d9db692;;26e621f6-blk4-433d-9260-f5c1708c9023;yy2a1b23-1234-test-6b6b-eac22a1b2346;yy2a1b23-0aa2-test-6b6b-eac22a1b2346;;;;00000046200068dd32-dN11111111;1;;;
36c1d2e6-f983-4ea6-ae18-201f1d9db692;;26e621f6-blk4-433d-9260-f5c1708c9023;yy2a1b23-1234-test-6b6b-eac22a1b2346;yy2a1b23-0aa2-test-6b6b-eac22a1b2346;;;;00000046200068dd33-dN11111111;1;;;
36c1d2e6-f983-4ea6-ae18-201f1d9db692;;26e621f6-blk4-433d-9260-f5c1708c9023;yy2a1b23-1234-test-6b6b-eac22a1b2346;yy2a1b23-0aa2-test-6b6b-eac22a1b2346;;;;00000046200068dd34-dN11111111;1;;;
36c1d2e6-f983-4ea6-ae18-201f1d9db692;;26e621f6-blk4-433d-9260-f5c1708c9023;yy2a1b23-1234-test-6b6b-eac22a1b2346;yy2a1b23-0aa2-test-6b6b-eac22a1b2346;;;;00000046200068dd35-dN11111111;1;;;
36c1d2e6-f983-4ea6-ae18-201f1d9db692;;26e621f6-blk4-433d-9260-f5c1708c9023;yy2a1b23-1234-test-6b6b-eac22a1b2346;yy2a1b23-0aa2-test-6b6b-eac22a1b2346;;;;00000046200068dd36-dN11111111;1;;;
36c1d2e6-f983-4ea6-ae18-201f1d9db692;;26e621f6-blk4-433d-9260-f5c1708c9023;yy2a1b23-1234-test-6b6b-eac22a1b2346;yy2a1b23-0aa2-test-6b6b-eac22a1b2346;;;;00000046200068dd37-dN11111111;1;;;
36c1d2e6-f983-4ea6-ae18-201f1d9db692;;26e621f6-blk4-433d-9260-f5c1708c9023;yy2a1b23-1234-test-6b6b-eac22a1b2346;yy2a1b23-0aa2-test-6b6b-eac22a1b2346;;;;00000046200068dd38-dN11111111;1;;;
36c1d2e6-f983-4ea6-ae18-201f1d9db692;;26e621f6-blk4-433d-9260-f5c1708c9023;yy2a1b23-1234-test-6b6b-eac22a1b2346;yy2a1b23-0aa2-test-6b6b-eac22a1b2346;;;;00000046200068dd39-dN11111111;1;;;
36c1d2e6-f983-4ea6-ae18-201f1d9db692;;26e621f6-blk5-433d-9260-f5c1708c9023;yy2a1b23-1234-test-6b6b-eac22a1b2346;yy2a1b23-0aa2-test-6b6b-eac22a1b2346;;;;00000046200068dd40-dN11111111;1;;;
36c1d2e6-f983-4ea6-ae18-201f1d9db692;;26e621f6-blk5-433d-9260-f5c1708c9023;yy2a1b23-1234-test-6b6b-eac22a1b2346;yy2a1b23-0aa2-test-6b6b-eac22a1b2346;;;;00000046200068dd41-dN11111111;1;;;
36c1d2e6-f983-4ea6-ae18-201f1d9db692;;26e621f6-blk5-433d-9260-f5c1708c9023;yy2a1b23-1234-test-6b6b-eac22a1b2346;yy2a1b23-0aa2-test-6b6b-eac22a1b2346;;;;00000046200068dd42-dN11111111;1;;;
36c1d2e6-f983-4ea6-ae18-201f1d9db692;;26e621f6-blk5-433d-9260-f5c1708c9023;yy2a1b23-1234-test-6b6b-eac22a1b2346;yy2a1b23-0aa2-test-6b6b-eac22a1b2346;;;;00000046200068dd43-dN11111111;1;;;
36c1d2e6-f983-4ea6-ae18-201f1d9db692;;26e621f6-blk5-433d-9260-f5c1708c9023;yy2a1b23-1234-test-6b6b-eac22a1b2346;yy2a1b23-0aa2-test-6b6b-eac22a1b2346;;;;00000046200068dd44-dN11111111;1;;;
36c1d2e6-f983-4ea6-ae18-201f1d9db692;;26e621f6-blk5-433d-9260-f5c1708c9023;yy2a1b23-1234-test-6b6b-eac22a1b2346;yy2a1b23-0aa2-test-6b6b-eac22a1b2346;;;;00000046200068dd45-dN11111111;1;;;
36c1d2e6-f983-4ea6-ae18-201f1d9db692;;26e621f6-blk5-433d-9260-f5c1708c9023;yy2a1b23-1234-test-6b6b-eac22a1b2346;yy2a1b23-0aa2-test-6b6b-eac22a1b2346;;;;00000046200068dd46-dN11111111;1;;;
36c1d2e6-f983-4ea6-ae18-201f1d9db692;;26e621f6-blk5-433d-9260-f5c1708c9023;yy2a1b23-1234-test-6b6b-eac22a1b2346;yy2a1b23-0aa2-test-6b6b-eac22a1b2346;;;;00000046200068dd47-dN11111111;1;;;
36c1d2e6-f983-4ea6-ae18-201f1d9db692;;26e621f6-blk5-433d-9260-f5c1708c9023;yy2a1b23-1234-test-6b6b-eac22a1b2346;yy2a1b23-0aa2-test-6b6b-eac22a1b2346;;;;00000046200068dd48-dN11111111;1;;;
36c1d2e6-f983-4ea6-ae18-201f1d9db692;;26e621f6-blk5-433d-9260-f5c1708c9023;yy2a1b23-1234-test-6b6b-eac22a1b2346;yy2a1b23-0aa2-test-6b6b-eac22a1b2346;;;;00000046200068dd49-dN11111111;1;;;
36c1d2e6-f983-4ea6-ae18-201f1d9db692;;26e621f6-blk6-433d-9260-f5c1708c9023;yy2a1b23-1234-test-6b6b-eac22a1b2349;yy2a1b23-0aa2-test-6b6b-eac22a1b2349;;;;00000046180834dd50-dN11111111;1;;;
36c1d2e6-f983-4ea6-ae18-201f1d9db692;;26e621f6-blk6-433d-9260-f5c1708c9023;yy2a1b23-1234-test-6b6b-eac22a1b2349;yy2a1b23-0aa2-test-6b6b-eac22a1b2349;;;;00000046180834dd51-dN11111111;1;;;
36c1d2e6-f983-4ea6-ae18-201f1d9db692;;26e621f6-blk6-433d-9260-f5c1708c9023;yy2a1b23-1234-test-6b6b-eac22a1b2349;yy2a1b23-0aa2-test-6b6b-eac22a1b2349;;;;00000046180834dd52-dN11111111;1;;;
36c1d2e6-f983-4ea6-ae18-201f1d9db692;;26e621f6-blk6-433d-9260-f5c1708c9023;yy2a1b23-1234-test-6b6b-eac22a1b2349;yy2a1b23-0aa2-test-6b6b-eac22a1b2349;;;;00000046180834dd53-dN11111111;1;;;
36c1d2e6-f983-4ea6-ae18-201f1d9db692;;26e621f6-blk6-433d-9260-f5c1708c9023;yy2a1b23-1234-test-6b6b-eac22a1b2349;yy2a1b23-0aa2-test-6b6b-eac22a1b2349;;;;00000046180834dd54-dN11111111;1;;;
36c1d2e6-f983-4ea6-ae18-201f1d9db692;;26e621f6-blk6-433d-9260-f5c1708c9023;yy2a1b23-1234-test-6b6b-eac22a1b2349;yy2a1b23-0aa2-test-6b6b-eac22a1b2349;;;;00000046180834dd55-dN11111111;1;;;
36c1d2e6-f983-4ea6-ae18-201f1d9db692;;26e621f6-blk6-433d-9260-f5c1708c9023;yy2a1b23-1234-test-6b6b-eac22a1b2349;yy2a1b23-0aa2-test-6b6b-eac22a1b2349;;;;00000046180834dd56-dN11111111;1;;;
36c1d2e6-f983-4ea6-ae18-201f1d9db692;;26e621f6-blk6-433d-9260-f5c1708c9023;yy2a1b23-1234-test-6b6b-eac22a1b2349;yy2a1b23-0aa2-test-6b6b-eac22a1b2349;;;;00000046180834dd57-dN11111111;1;;;
36c1d2e6-f983-4ea6-ae18-201f1d9db692;;26e621f6-blk6-433d-9260-f5c1708c9023;yy2a1b23-1234-test-6b6b-eac22a1b2349;yy2a1b23-0aa2-test-6b6b-eac22a1b2349;;;;00000046180834dd58-dN11111111;1;;;
36c1d2e6-f983-4ea6-ae18-201f1d9db692;;26e621f6-blk6-433d-9260-f5c1708c9023;yy2a1b23-1234-test-6b6b-eac22a1b2349;yy2a1b23-0aa2-test-6b6b-eac22a1b2349;;;;00000046180834dd59-dN11111111;1;;;
36c1d2e6-f983-4ea6-ae18-201f1d9db692;;5f800be8-alc1-438f-b758-de27e3e02c00;0b4389ad-c7d9-46f4-809f-e2f1d9920b1a;7f292a8c-41e0-42e0-ba45-e6b2b352bdbf;;;;01342533300330A4HZK0BSS198747972066419FEH7YZZ068ZEJPGLYEKJU1S44VSNXQ28N000008MC75BA4HZK0BSS198747972066419FEH7YZZ068ZEJPGLYEKJU1S44VSNXQ51225633366001;1;;;15545000002458800
36c1d2e6-f983-4ea6-ae18-201f1d9db692;;5f800be8-alc1-438f-b758-de27e3e02c00;0b4389ad-c7d9-46f4-809f-e2f1d9920b1a;7f292a8c-41e0-42e0-ba45-e6b2b352bdbf;;;;01342533300331A4HZK0BSS198747972066419FEH7YZZ068ZEJPGLYEKJU1S44VSNXQ28N000008MC75BA4HZK0BSS198747972066419FEH7YZZ068ZEJPGLYEKJU1S44VSNXQ51225633366001;1;;;15545000002458800
36c1d2e6-f983-4ea6-ae18-201f1d9db692;;5f800be8-alc1-438f-b758-de27e3e02c00;0b4389ad-c7d9-46f4-809f-e2f1d9920b1a;7f292a8c-41e0-42e0-ba45-e6b2b352bdbf;;;;01342533300332A4HZK0BSS198747972066419FEH7YZZ068ZEJPGLYEKJU1S44VSNXQ28N000008MC75BA4HZK0BSS198747972066419FEH7YZZ068ZEJPGLYEKJU1S44VSNXQ51225633366001;1;;;15545000002458800
36c1d2e6-f983-4ea6-ae18-201f1d9db692;;5f800be8-alc1-438f-b758-de27e3e02c00;0b4389ad-c7d9-46f4-809f-e2f1d9920b1a;7f292a8c-41e0-42e0-ba45-e6b2b352bdbf;;;;01342533300333A4HZK0BSS198747972066419FEH7YZZ068ZEJPGLYEKJU1S44VSNXQ28N000008MC75BA4HZK0BSS198747972066419FEH7YZZ068ZEJPGLYEKJU1S44VSNXQ51225633366001;1;;;15545000002458800
36c1d2e6-f983-4ea6-ae18-201f1d9db692;;5f800be8-alc1-438f-b758-de27e3e02c00;0b4389ad-c7d9-46f4-809f-e2f1d9920b1a;7f292a8c-41e0-42e0-ba45-e6b2b352bdbf;;;;01342533300334A4HZK0BSS198747972066419FEH7YZZ068ZEJPGLYEKJU1S44VSNXQ28N000008MC75BA4HZK0BSS198747972066419FEH7YZZ068ZEJPGLYEKJU1S44VSNXQ51225633366001;1;;;15545000002458800
36c1d2e6-f983-4ea6-ae18-201f1d9db692;;5f800be8-alc2-438f-b758-de27e3e02c00;0b4389ad-c7d9-46f4-809f-e2f1d9920b1a;7f292a8c-41e0-42e0-ba45-e6b2b352bdbf;;;;01342533300335A4HZK0BSS198747972066419FEH7YZZ068ZEJPGLYEKJU1S44VSNXQ28N000008MC75BA4HZK0BSS198747972066419FEH7YZZ068ZEJPGLYEKJU1S44VSNXQ51225633366001;1;;;15545000002458800
36c1d2e6-f983-4ea6-ae18-201f1d9db692;;5f800be8-alc2-438f-b758-de27e3e02c00;0b4389ad-c7d9-46f4-809f-e2f1d9920b1a;7f292a8c-41e0-42e0-ba45-e6b2b352bdbf;;;;01342533300336A4HZK0BSS198747972066419FEH7YZZ068ZEJPGLYEKJU1S44VSNXQ28N000008MC75BA4HZK0BSS198747972066419FEH7YZZ068ZEJPGLYEKJU1S44VSNXQ51225633366001;1;;;15545000002458800
36c1d2e6-f983-4ea6-ae18-201f1d9db692;;5f800be8-alc2-438f-b758-de27e3e02c00;0b4389ad-c7d9-46f4-809f-e2f1d9920b1a;7f292a8c-41e0-42e0-ba45-e6b2b352bdbf;;;;01342533300337A4HZK0BSS198747972066419FEH7YZZ068ZEJPGLYEKJU1S44VSNXQ28N000008MC75BA4HZK0BSS198747972066419FEH7YZZ068ZEJPGLYEKJU1S44VSNXQ51225633366001;1;;;15545000002458800
36c1d2e6-f983-4ea6-ae18-201f1d9db692;;5f800be8-alc2-438f-b758-de27e3e02c00;0b4389ad-c7d9-46f4-809f-e2f1d9920b1a;7f292a8c-41e0-42e0-ba45-e6b2b352bdbf;;;;01342533300338A4HZK0BSS198747972066419FEH7YZZ068ZEJPGLYEKJU1S44VSNXQ28N000008MC75BA4HZK0BSS198747972066419FEH7YZZ068ZEJPGLYEKJU1S44VSNXQ51225633366001;1;;;15545000002458800
36c1d2e6-f983-4ea6-ae18-201f1d9db692;;5f800be8-alc2-438f-b758-de27e3e02c00;0b4389ad-c7d9-46f4-809f-e2f1d9920b1a;7f292a8c-41e0-42e0-ba45-e6b2b352bdbf;;;;01342533300339A4HZK0BSS198747972066419FEH7YZZ068ZEJPGLYEKJU1S44VSNXQ28N000008MC75BA4HZK0BSS198747972066419FEH7YZZ068ZEJPGLYEKJU1S44VSNXQ51225633366001;1;;;15545000002458800
36c1d2e6-f983-4ea6-ae18-201f1d9db692;;8b82076c-shs1-4478-ad6f-8f700092911f;040c28b4-acf6-49c5-a974-74096d2c3120;6cc0c37a-2ccb-43b0-aead-6fc9e38feb26;e5a4c316-a659-11dd-acee-0015e9b8c48d;;;(01)04683282732232(21)3711191910330;1;;;
36c1d2e6-f983-4ea6-ae18-201f1d9db692;;8b82076c-shs1-4478-ad6f-8f700092911f;040c28b4-acf6-49c5-a974-74096d2c3120;6cc0c37a-2ccb-43b0-aead-6fc9e38feb26;e5a4c316-a659-11dd-acee-0015e9b8c48d;;;(01)04683282732232(21)3711191910331;1;;;
36c1d2e6-f983-4ea6-ae18-201f1d9db692;;8b82076c-shs1-4478-ad6f-8f700092911f;040c28b4-acf6-49c5-a974-74096d2c3120;6cc0c37a-2ccb-43b0-aead-6fc9e38feb26;e5a4c316-a659-11dd-acee-0015e9b8c48d;;;(01)04683282732232(21)3711191910332;1;;;
36c1d2e6-f983-4ea6-ae18-201f1d9db692;;8b82076c-shs1-4478-ad6f-8f700092911f;040c28b4-acf6-49c5-a974-74096d2c3120;6cc0c37a-2ccb-43b0-aead-6fc9e38feb26;e5a4c316-a659-11dd-acee-0015e9b8c48d;;;(01)04683282732232(21)3711191910333;1;;;
36c1d2e6-f983-4ea6-ae18-201f1d9db692;;8b82076c-shs1-4478-ad6f-8f700092911f;040c28b4-acf6-49c5-a974-74096d2c3120;6cc0c37a-2ccb-43b0-aead-6fc9e38feb26;e5a4c316-a659-11dd-acee-0015e9b8c48d;;;(01)04683282732232(21)3711191910334;1;;;
36c1d2e6-f983-4ea6-ae18-201f1d9db692;;8b82076c-shs1-4478-ad6f-8f700092911f;040c28b4-acf6-49c5-a974-74096d2c3120;6cc0c37a-2ccb-43b0-aead-6fc9e38feb26;e5a4c316-a659-11dd-acee-0015e9b8c48d;;;(01)04683282732232(21)3711191910335;1;;;
36c1d2e6-f983-4ea6-ae18-201f1d9db692;;8b82076c-shs1-4478-ad6f-8f700092911f;040c28b4-acf6-49c5-a974-74096d2c3120;6cc0c37a-2ccb-43b0-aead-6fc9e38feb26;e5a4c316-a659-11dd-acee-0015e9b8c48d;;;(01)04683282732232(21)3711191910336;1;;;
36c1d2e6-f983-4ea6-ae18-201f1d9db692;;8b82076c-shs1-4478-ad6f-8f700092911f;040c28b4-acf6-49c5-a974-74096d2c3120;6cc0c37a-2ccb-43b0-aead-6fc9e38feb26;e5a4c316-a659-11dd-acee-0015e9b8c48d;;;(01)04683282732232(21)3711191910337;1;;;
36c1d2e6-f983-4ea6-ae18-201f1d9db692;;8b82076c-shs2-4478-ad6f-8f700092911f;040c28b4-acf6-49c5-a974-74096d2c3120;6cc0c37a-2ccb-43b0-aead-6fc9e38feb26;e5a4c316-a659-11dd-acee-0015e9b8c48d;;;(01)04683282732232(21)3711191910338;1;;;
36c1d2e6-f983-4ea6-ae18-201f1d9db692;;8b82076c-shs2-4478-ad6f-8f700092911f;040c28b4-acf6-49c5-a974-74096d2c3120;6cc0c37a-2ccb-43b0-aead-6fc9e38feb26;e5a4c316-a659-11dd-acee-0015e9b8c48d;;;(01)04683282732232(21)3711191910339;1;;;
36c1d2e6-f983-4ea6-ae18-201f1d9db692;;8b82076c-shs2-4478-ad6f-8f700092911f;040c28b4-acf6-49c5-a974-74096d2c3120;6cc0c37a-2ccb-43b0-aead-6fc9e38feb26;90c55448-d3a8-11e4-9423-e0cb4ed5eed4;;;(01)04683282736438(21)3711191910311;1;;;
36c1d2e6-f983-4ea6-ae18-201f1d9db692;;8b82076c-shs2-4478-ad6f-8f700092911f;040c28b4-acf6-49c5-a974-74096d2c3120;6cc0c37a-2ccb-43b0-aead-6fc9e38feb26;90c55448-d3a8-11e4-9423-e0cb4ed5eed4;;;(01)04683282736438(21)3711191910321;1;;;
36c1d2e6-f983-4ea6-ae18-201f1d9db692;;8b82076c-shs2-4478-ad6f-8f700092911f;040c28b4-acf6-49c5-a974-74096d2c3120;6cc0c37a-2ccb-43b0-aead-6fc9e38feb26;90c55448-d3a8-11e4-9423-e0cb4ed5eed4;;;(01)04683282736438(21)3711191910331;1;;;
36c1d2e6-f983-4ea6-ae18-201f1d9db692;;8b82076c-shs2-4478-ad6f-8f700092911f;040c28b4-acf6-49c5-a974-74096d2c3120;6cc0c37a-2ccb-43b0-aead-6fc9e38feb26;90c55448-d3a8-11e4-9423-e0cb4ed5eed4;;;(01)04683282736438(21)3711191910341;1;;;
36c1d2e6-f983-4ea6-ae18-201f1d9db692;;8b82076c-shs2-4478-ad6f-8f700092911f;040c28b4-acf6-49c5-a974-74096d2c3120;6cc0c37a-2ccb-43b0-aead-6fc9e38feb26;90c55448-d3a8-11e4-9423-e0cb4ed5eed4;;;(01)04683282736438(21)3711191910351;1;;;
36c1d2e6-f983-4ea6-ae18-201f1d9db692;;8b82076c-shs3-4478-ad6f-8f700092911f;040c28b4-acf6-49c5-a974-74096d2c3120;6cc0c37a-2ccb-43b0-aead-6fc9e38feb26;90c5544a-d3a8-11e4-9423-e0cb4ed5eed4;;;(01)04600367237321(21)3711191910361;1;;;
36c1d2e6-f983-4ea6-ae18-201f1d9db692;;8b82076c-shs3-4478-ad6f-8f700092911f;040c28b4-acf6-49c5-a974-74096d2c3120;6cc0c37a-2ccb-43b0-aead-6fc9e38feb26;90c5544a-d3a8-11e4-9423-e0cb4ed5eed4;;;(01)04600367237321(21)3711191910371;1;;;
36c1d2e6-f983-4ea6-ae18-201f1d9db692;;8b82076c-shs3-4478-ad6f-8f700092911f;040c28b4-acf6-49c5-a974-74096d2c3120;6cc0c37a-2ccb-43b0-aead-6fc9e38feb26;90c5544a-d3a8-11e4-9423-e0cb4ed5eed4;;;(01)04600367237321(21)3711191910381;1;;;
36c1d2e6-f983-4ea6-ae18-201f1d9db692;;8b82076c-shs3-4478-ad6f-8f700092911f;040c28b4-acf6-49c5-a974-74096d2c3120;6cc0c37a-2ccb-43b0-aead-6fc9e38feb26;90c5544a-d3a8-11e4-9423-e0cb4ed5eed4;;;(01)04600367237321(21)3711191910441;1;;;
36c1d2e6-f983-4ea6-ae18-201f1d9db692;;8b82076c-shs3-4478-ad6f-8f700092911f;040c28b4-acf6-49c5-a974-74096d2c3120;6cc0c37a-2ccb-43b0-aead-6fc9e38feb26;90c5544a-d3a8-11e4-9423-e0cb4ed5eed4;;;(01)04600367237321(21)3711191910451;1;;;
36c1d2e6-f983-4ea6-ae18-201f1d9db692;;8b82076c-shs3-4478-ad6f-8f700092911f;040c28b4-acf6-49c5-a974-74096d2c3120;6cc0c37a-2ccb-43b0-aead-6fc9e38feb26;90c5544a-d3a8-11e4-9423-e0cb4ed5eed4;;;(01)04600367237321(21)3711191910462;1;;;
36c1d2e6-f983-4ea6-ae18-201f1d9db692;;8b82076c-shs3-4478-ad6f-8f700092911f;040c28b4-acf6-49c5-a974-74096d2c3120;6cc0c37a-2ccb-43b0-aead-6fc9e38feb26;90c5544a-d3a8-11e4-9423-e0cb4ed5eed4;;;(01)04600367237321(21)3711191910472;1;;;
36c1d2e6-f983-4ea6-ae18-201f1d9db692;;8b82076c-lk10-4499-ad6f-8f700092911f;497642f2-821b-46bb-a0fd-e8e71e1b3343;c0ee6474-9de1-4b21-8d9c-ba66d181f869;;;;04444282732239demo281954610;1;;;
36c1d2e6-f983-4ea6-ae18-201f1d9db692;;8b82076c-lk10-4499-ad6f-8f700092911f;497642f2-821b-46bb-a0fd-e8e71e1b3343;c0ee6474-9de1-4b21-8d9c-ba66d181f869;;;;04444282732239demo698452715;1;;;
36c1d2e6-f983-4ea6-ae18-201f1d9db692;;8b82076c-lk10-4499-ad6f-8f700092911f;497642f2-821b-46bb-a0fd-e8e71e1b3343;c0ee6474-9de1-4b21-8d9c-ba66d181f869;;;;04444282732239demo263081201;1;;;
36c1d2e6-f983-4ea6-ae18-201f1d9db692;;8b82076c-lk10-4499-ad6f-8f700092911f;497642f2-821b-46bb-a0fd-e8e71e1b3343;c0ee6474-9de1-4b21-8d9c-ba66d181f869;;;;04444282732239demo415889567;1;;;
36c1d2e6-f983-4ea6-ae18-201f1d9db692;;8b82076c-lk10-4499-ad6f-8f700092911f;497642f2-821b-46bb-a0fd-e8e71e1b3343;c0ee6474-9de1-4b21-8d9c-ba66d181f869;;;;04444282732239demo102269590;1;;;
36c1d2e6-f983-4ea6-ae18-201f1d9db692;;8b82076c-lk20-4499-ad6f-8f700092911f;807642f2-821b-46bb-a0fd-e8e71e1z0001;c0ee6474-9de1-4b21-8d9c-ba66d181y709;;;;04444282732444demo893621751;1;;;
36c1d2e6-f983-4ea6-ae18-201f1d9db692;;8b82076c-lk20-4499-ad6f-8f700092911f;807642f2-821b-46bb-a0fd-e8e71e1z0001;c0ee6474-9de1-4b21-8d9c-ba66d181y709;;;;04444282732444demo655504358;1;;;
36c1d2e6-f983-4ea6-ae18-201f1d9db692;;8b82076c-lk20-4499-ad6f-8f700092911f;807642f2-821b-46bb-a0fd-e8e71e1z0001;c0ee6474-9de1-4b21-8d9c-ba66d181y709;;;;04444282732444demo152485012;1;;;
36c1d2e6-f983-4ea6-ae18-201f1d9db692;;8b82076c-lk20-4499-ad6f-8f700092911f;807642f2-821b-46bb-a0fd-e8e71e1z0001;c0ee6474-9de1-4b21-8d9c-ba66d181y709;;;;04444282732444demo139955230;1;;;
36c1d2e6-f983-4ea6-ae18-201f1d9db692;;8b82076c-lk20-4499-ad6f-8f700092911f;807642f2-821b-46bb-a0fd-e8e71e1z0001;c0ee6474-9de1-4b21-8d9c-ba66d181y709;;;;04444282732444demo334307803;1;;;
36c1d2e6-f983-4ea6-ae18-201f1d9db692;;8b82076c-lk30-4499-ad6f-8f700092911f;900642f2-821b-46bb-a0fd-e8e71e3x0033;c0ee6474-9de1-4b21-8d9c-ba66d181y815;;;;04444282732819demo360048950;1;;;
36c1d2e6-f983-4ea6-ae18-201f1d9db692;;8b82076c-lk30-4499-ad6f-8f700092911f;900642f2-821b-46bb-a0fd-e8e71e3x0033;c0ee6474-9de1-4b21-8d9c-ba66d181y815;;;;04444282732819demo296328141;1;;;
36c1d2e6-f983-4ea6-ae18-201f1d9db692;;8b82076c-lk30-4499-ad6f-8f700092911f;900642f2-821b-46bb-a0fd-e8e71e3x0033;c0ee6474-9de1-4b21-8d9c-ba66d181y815;;;;04444282732819demo797751322;1;;;
36c1d2e6-f983-4ea6-ae18-201f1d9db692;;8b82076c-lk30-4499-ad6f-8f700092911f;900642f2-821b-46bb-a0fd-e8e71e3x0033;c0ee6474-9de1-4b21-8d9c-ba66d181y815;;;;04444282732819demo840300695;1;;;
36c1d2e6-f983-4ea6-ae18-201f1d9db692;;8b82076c-lk30-4499-ad6f-8f700092911f;900642f2-821b-46bb-a0fd-e8e71e3x0033;c0ee6474-9de1-4b21-8d9c-ba66d181y815;;;;04444282732819demo139955230;1;;;
36c1d2e6-f983-4ea6-ae18-201f1d9db692;;8b82076c-pf10-4499-ad6f-8f700092911f;32085e30-7b9c-4c99-8508-506695314e6c;c0ee6474-9de1-4b21-8d9c-ba66d181y222;;;;(01)04650075194959(21)_UjJ8rbR1"qd7(91)TEST(92)dGVzdC95GdlQbO6/3ry4eN50tpif6zkGUAgWLtx/CUg=;1;;;
36c1d2e6-f983-4ea6-ae18-201f1d9db692;;8b82076c-pf10-4499-ad6f-8f700092911f;32085e30-7b9c-4c99-8508-506695314e6c;c0ee6474-9de1-4b21-8d9c-ba66d181y222;;;;(01)04650075194959(21)?CJj+zAqTAGlU(91)TEST(92)dGVzdC95GdlQbO6/3ry4eN50tpif6zkGUAgWLtx/wwg=;1;;;
36c1d2e6-f983-4ea6-ae18-201f1d9db692;;8b82076c-pf10-4499-ad6f-8f700092911f;32085e30-7b9c-4c99-8508-506695314e6c;c0ee6474-9de1-4b21-8d9c-ba66d181y222;;;;(01)04650075194959(21)jhDsBfmcdaXoW(91)TEST(92)dGVzdC95GdlQbO6/3ry4eN50tpif6zkGUAgWLtx/wrr=;1;;;
36c1d2e6-f983-4ea6-ae18-201f1d9db692;;8b82076c-pf10-4499-ad6f-8f700092911f;32085e30-7b9c-4c99-8508-506695314e6c;c0ee6474-9de1-4b21-8d9c-ba66d181y222;;;;(01)04650075194959(21)vmBfcsSj+,lwD(91)TEST(92)dGVzdC95GdlQbO6/3ry4eN50tpif6zkGUAgWLtx/33g=;1;;;
36c1d2e6-f983-4ea6-ae18-201f1d9db692;;8b82076c-pf10-4499-ad6f-8f700092911f;32085e30-7b9c-4c99-8508-506695314e6c;c0ee6474-9de1-4b21-8d9c-ba66d181y222;;;;(01)04650075194959(21)w?oLLUFOebAf((91)TEST(92)dGVzdC95GdlQbO6/3ry4eN50tpif6zkGUAgWLtx/w3g=;1;;;
36c1d2e6-f983-4ea6-ae18-201f1d9db692;;8b82076c-pf20-4499-ad6f-8f700092911f;32085e30-7b9c-4c99-8508-461357414e6c;c0ee6474-9de1-4b21-8d9c-ba66d181y111;;;;(01)04650075194966(21)(3d'zulqOfWJU(91)TEST(92)dGVzdC95GdlQbO6/3ry4eN50tpif6zkGUAgWLtx/23==;1;;;
36c1d2e6-f983-4ea6-ae18-201f1d9db692;;8b82076c-pf20-4499-ad6f-8f700092911f;32085e30-7b9c-4c99-8508-461357414e6c;c0ee6474-9de1-4b21-8d9c-ba66d181y111;;;;(01)04650075194966(21)jKRb-GuajU2xY(91)TEST(92)dGVzdC95GdlQbO6/3ry4eN50tpif6zkGUAgWLtxrt6==;1;;;
36c1d2e6-f983-4ea6-ae18-201f1d9db692;;8b82076c-pf20-4499-ad6f-8f700092911f;32085e30-7b9c-4c99-8508-461357414e6c;c0ee6474-9de1-4b21-8d9c-ba66d181y111;;;;(01)04650075194966(21)qlghrnp62bUq.(91)TEST(92)dGVzdC95GdlQbO6/3ry4eN50tpif6zkGUAgWLtx5g5==;1;;;
36c1d2e6-f983-4ea6-ae18-201f1d9db692;;8b82076c-pf20-4499-ad6f-8f700092911f;32085e30-7b9c-4c99-8508-461357414e6c;c0ee6474-9de1-4b21-8d9c-ba66d181y111;;;;(01)04650075194966(21)sIFH(1Wy'X;XH(91)TEST(92)dGVzdC95GdlQbO6/3ry4eN50tpif6zkGUAgWLtx/b3==;1;;;
36c1d2e6-f983-4ea6-ae18-201f1d9db692;;8b82076c-pf20-4499-ad6f-8f700092911f;32085e30-7b9c-4c99-8508-461357414e6c;c0ee6474-9de1-4b21-8d9c-ba66d181y111;;;;(01)04650075194966(21)Y(qN-dEcNETo5(91)TEST(92)dGVzdC95GdlQbO6/3ry4eN50tpif6zkGUAgWLtx555==;1;;;
36c1d2e6-f983-4ea6-ae18-201f1d9db692;;8b82076c-ty10-4499-ad6f-8f700092911f;22085e30-7b9c-4c32-aa76-436e21ff45f7;c0ee6474-9de1-4b21-8d9c-44dd58b15200;;;;(01)04650075195000(21),8TdrEC71*&GM(91)TEST(92)dGVzdAETc6JP4erTXzSwXDMImWF9CQwLLrOM/2qvQhU=;1;;;
36c1d2e6-f983-4ea6-ae18-201f1d9db692;;8b82076c-ty10-4499-ad6f-8f700092911f;22085e30-7b9c-4c32-aa76-436e21ff45f7;c0ee6474-9de1-4b21-8d9c-44dd58b15200;;;;(01)04650075195000(21)1&bIRpV6eW5Jm(91)TEST(92)dGVzdAETc6JP4erTXzSwXDMImWF9CQwLLrOM/2q3434=;1;;;
36c1d2e6-f983-4ea6-ae18-201f1d9db692;;8b82076c-ty10-4499-ad6f-8f700092911f;22085e30-7b9c-4c32-aa76-436e21ff45f7;c0ee6474-9de1-4b21-8d9c-44dd58b15200;;;;(01)04650075195000(21)4hE'rw&U5FE/T(91)TEST(92)dGVzdAETc6JP4erTXzSwXDMImWF9CQwLLrOM/2qvwww=;1;;;
36c1d2e6-f983-4ea6-ae18-201f1d9db692;;8b82076c-ty10-4499-ad6f-8f700092911f;22085e30-7b9c-4c32-aa76-436e21ff45f7;c0ee6474-9de1-4b21-8d9c-44dd58b15200;;;;(01)04650075195000(21)c81L.lgo;(txE(91)TEST(92)dGVzdAETc6JP4erTXzSwXDMImWF9CQwLLrOM/2qrrt5=;1;;;
36c1d2e6-f983-4ea6-ae18-201f1d9db692;;8b82076c-ty10-4499-ad6f-8f700092911f;22085e30-7b9c-4c32-aa76-436e21ff45f7;c0ee6474-9de1-4b21-8d9c-44dd58b15200;;;;(01)04650075195000(21)XDBjOgw05DcF0(91)TEST(92)dGVzdAETc6JP4erTXzSwXDMImWF9CQwLLrOM/2q3rr3=;1;;;
36c1d2e6-f983-4ea6-ae18-201f1d9db692;;8b82076c-ty20-4499-ad6f-8f700092911f;22085e30-7b9c-4c32-aa76-4612800024ff;f4ee6474-9de1-4b21-8d9c-44dd58b15266;;;;(01)04650075195017(21))JsY6PM?Ao>hn(91)TEST(92)dGVzdAETc6JP4erTXzSwXDMImWF9CQwLLrOM/2q5vb4=;1;;;
36c1d2e6-f983-4ea6-ae18-201f1d9db692;;8b82076c-ty20-4499-ad6f-8f700092911f;22085e30-7b9c-4c32-aa76-4612800024ff;f4ee6474-9de1-4b21-8d9c-44dd58b15266;;;;(01)04650075195017(21)1hwlUGZ"HVwn%(91)TEST(92)dGVzdAETc6JP4erTXzSwXDMImWF9CQwLLrOM/2q1111=;1;;;
36c1d2e6-f983-4ea6-ae18-201f1d9db692;;8b82076c-ty20-4499-ad6f-8f700092911f;22085e30-7b9c-4c32-aa76-4612800024ff;f4ee6474-9de1-4b21-8d9c-44dd58b15266;;;;(01)04650075195017(21)hYBJrghQ:jBFK(91)TEST(92)dGVzdAETc6JP4erTXzSwXDMImWF9CQwLLrOM/2q''99=;1;;;
36c1d2e6-f983-4ea6-ae18-201f1d9db692;;8b82076c-ty20-4499-ad6f-8f700092911f;22085e30-7b9c-4c32-aa76-4612800024ff;f4ee6474-9de1-4b21-8d9c-44dd58b15266;;;;(01)04650075195017(21)YoZLzsf?cm8!c(91)TEST(92)dGVzdAETc6JP4erTXzSwXDMImWF9CQwLLrOM/2q1ee1=;1;;;
36c1d2e6-f983-4ea6-ae18-201f1d9db692;;8b82076c-ty20-4499-ad6f-8f700092911f;22085e30-7b9c-4c32-aa76-4612800024ff;f4ee6474-9de1-4b21-8d9c-44dd58b15266;;;;(01)04650075195017(21)ZYTri8zbHhd'L(91)TEST(92)dGVzdAETc6JP4erTXzSwXDMImWF9CQwLLrOM/2qdfg0=;1;;;
36c1d2e6-f983-4ea6-ae18-201f1d9db692;;8b82076c-cl10-4499-ad6f-8f700098523a;54800202-7b9c-4c32-f008-4612800a1520;f4ee6474-9de1-4b21-8d9c-44dd58b00887;;;;(01)04650075194973(21)4Xb-jW5EoaE8?(91)TEST(92)dGVzdJN0U6PbIQGZA+wksnPy+QDpKbZOAH7ThJ6D8zQ=;1;;;
36c1d2e6-f983-4ea6-ae18-201f1d9db692;;8b82076c-cl10-4499-ad6f-8f700098523a;54800202-7b9c-4c32-f008-4612800a1520;f4ee6474-9de1-4b21-8d9c-44dd58b00887;;;;(01)04650075194973(21)BCMxXT+W9)R),(91)TEST(92)dGVzdJN0U6PbIQGZA+wksnPy+QDpKbZOAH7ThJ6eert=;1;;;
36c1d2e6-f983-4ea6-ae18-201f1d9db692;;8b82076c-cl10-4499-ad6f-8f700098523a;54800202-7b9c-4c32-f008-4612800a1520;f4ee6474-9de1-4b21-8d9c-44dd58b00887;;;;(01)04650075194973(21)dYJxZ"nG'KyhE(91)TEST(92)dGVzdJN0U6PbIQGZA+wksnPy+QDpKbZOAH7ThJ68r8y=;1;;;
36c1d2e6-f983-4ea6-ae18-201f1d9db692;;8b82076c-cl10-4499-ad6f-8f700098523a;54800202-7b9c-4c32-f008-4612800a1520;f4ee6474-9de1-4b21-8d9c-44dd58b00887;;;;(01)04650075194973(21)j>Tej1AkW4>25(91)TEST(92)dGVzdJN0U6PbIQGZA+wksnPy+QDpKbZOAH7ThJ63333=;1;;;
36c1d2e6-f983-4ea6-ae18-201f1d9db692;;8b82076c-cl10-4499-ad6f-8f700098523a;54800202-7b9c-4c32-f008-4612800a1520;f4ee6474-9de1-4b21-8d9c-44dd58b00887;;;;(01)04650075194973(21)KoYiimhQVR<XH(91)TEST(92)dGVzdJN0U6PbIQGZA+wksnPy+QDpKbZOAH7ThJ68r8t=;1;;;
36c1d2e6-f983-4ea6-ae18-201f1d9db692;;8b82076c-cl20-4499-ad6f-8f700098523b;54800202-7b9c-4c32-f008-4612800a1521;f4ee6474-9de1-4b21-8d9c-44dd58b00400;;;;(01)04650075194980(21).qG44P)*7zGaF(91)TEST(92)dGVzdJN0U6PbIQGZA+wksnPy+QDpKbZOAH7ThJ680ec=;1;;;
36c1d2e6-f983-4ea6-ae18-201f1d9db692;;8b82076c-cl20-4499-ad6f-8f700098523b;54800202-7b9c-4c32-f008-4612800a1521;f4ee6474-9de1-4b21-8d9c-44dd58b00400;;;;(01)04650075194980(21)+wnKgSOQ?1!RA(91)TEST(92)dGVzdJN0U6PbIQGZA+wksnPy+QDpKbZOAH7ThJ68ws3=;1;;;
36c1d2e6-f983-4ea6-ae18-201f1d9db692;;8b82076c-cl20-4499-ad6f-8f700098523b;54800202-7b9c-4c32-f008-4612800a1521;f4ee6474-9de1-4b21-8d9c-44dd58b00400;;;;(01)04650075194980(21)AhQDp4p&qM?Vx(91)TEST(92)dGVzdJN0U6PbIQGZA+wksnPy+QDpKbZOAH7ThJ68+%7=;1;;;
36c1d2e6-f983-4ea6-ae18-201f1d9db692;;8b82076c-cl20-4499-ad6f-8f700098523b;54800202-7b9c-4c32-f008-4612800a1521;f4ee6474-9de1-4b21-8d9c-44dd58b00400;;;;(01)04650075194980(21)oy1B-TiirTDV7(91)TEST(92)dGVzdJN0U6PbIQGZA+wksnPy+QDpKbZOAH7ThJ681ww=;1;;;
36c1d2e6-f983-4ea6-ae18-201f1d9db692;;8b82076c-cl20-4499-ad6f-8f700098523b;54800202-7b9c-4c32-f008-4612800a1521;f4ee6474-9de1-4b21-8d9c-44dd58b00400;;;;(01)04650075194980(21)Xg!6)i""xJPCQ(91)TEST(92)dGVzdJN0U6PbIQGZA+wksnPy+QDpKbZOAH7ThJ681w0=;1;;;
36c1d2e6-f983-4ea6-ae18-201f1d9db692;;8b82076c-ph10-4499-ad6f-8f700098cd9a;6668a9c8-e60b-4f1c-9bdd-19547f49fa01;5ac0c37a-2ccb-a555-aead-6fc9e38f787d;;;;(01)04650075195093(21)pFKoIV<IRb6HELtU3NKL(91)TEST(92)dGVzdH5k/UOlbWzet511HAS6/kutlnF9TdEpA7G6nXU=;1;;;
36c1d2e6-f983-4ea6-ae18-201f1d9db692;;8b82076c-ph10-4499-ad6f-8f700098cd9a;6668a9c8-e60b-4f1c-9bdd-19547f49fa01;5ac0c37a-2ccb-a555-aead-6fc9e38f787d;;;;(01)04650075195093(21)mpcYwdKJk?QZJiVaejmK(91)TEST(92)dGVzdH5k/UOlbWzet511HAS6/kutlnF9TdEpA7G6454=;1;;;
36c1d2e6-f983-4ea6-ae18-201f1d9db692;;8b82076c-ph10-4499-ad6f-8f700098cd9a;6668a9c8-e60b-4f1c-9bdd-19547f49fa01;5ac0c37a-2ccb-a555-aead-6fc9e38f787d;;;;(01)04650075195093(21)eU45jfQxqZ7jQayS9PmO(91)TEST(92)dGVzdH5k/UOlbWzet511HAS6/kutlnF9TdEpA7G6454=;1;;;
36c1d2e6-f983-4ea6-ae18-201f1d9db692;;8b82076c-ph10-4499-ad6f-8f700098cd9a;6668a9c8-e60b-4f1c-9bdd-19547f49fa01;5ac0c37a-2ccb-a555-aead-6fc9e38f787d;;;;(01)04650075195093(21)9KwlHofTonwBB&riYBsj(91)TEST(92)dGVzdH5k/UOlbWzet511HAS6/kutlnF9TdEpA7Gggtt=;1;;;
36c1d2e6-f983-4ea6-ae18-201f1d9db692;;8b82076c-ph10-4499-ad6f-8f700098cd9a;6668a9c8-e60b-4f1c-9bdd-19547f49fa01;5ac0c37a-2ccb-a555-aead-6fc9e38f787d;;;;(01)04650075195093(21)*fmq"dXSBHQpsrA"TXSO(91)TEST(92)dGVzdH5k/UOlbWzet511HAS6/kutlnF9TdEpA7Gggtt=;1;;;
36c1d2e6-f983-4ea6-ae18-201f1d9db692;;8b82076c-ph20-4499-ad6f-8f700098cd9b;7778a9c8-e60b-4f1c-9bdd-19547f49fa0b;5ac0c37a-2ccb-a777-aead-6fc9e38f00aa;;;;(01)04650075195109(21).8ldq?r>JA2R'6;IR!k&(91)TEST(92)dGVzdH5k/UOlbWzet511HAS6/kutlnF9TdEpA7Gggt==;1;;;
36c1d2e6-f983-4ea6-ae18-201f1d9db692;;8b82076c-ph20-4499-ad6f-8f700098cd9b;7778a9c8-e60b-4f1c-9bdd-19547f49fa0b;5ac0c37a-2ccb-a777-aead-6fc9e38f00aa;;;;(01)04650075195109(21)0H%RpKbmWL)O.'JJDgo7(91)TEST(92)dGVzdH5k/UOlbWzet511HAS6/kutlnF9TdEpA7Gg3a==;1;;;
36c1d2e6-f983-4ea6-ae18-201f1d9db692;;8b82076c-ph20-4499-ad6f-8f700098cd9b;7778a9c8-e60b-4f1c-9bdd-19547f49fa0b;5ac0c37a-2ccb-a777-aead-6fc9e38f00aa;;;;(01)04650075195109(21)eh<IQFdDYL4tXsQEdS=?(91)TEST(92)dGVzdH5k/UOlbWzet511HAS6/kutlnF9TdEpA7Gg44r=;1;;;
36c1d2e6-f983-4ea6-ae18-201f1d9db692;;8b82076c-ph20-4499-ad6f-8f700098cd9b;7778a9c8-e60b-4f1c-9bdd-19547f49fa0b;5ac0c37a-2ccb-a777-aead-6fc9e38f00aa;;;;(01)04650075195109(21)j%bc4V6Df>cz%>qFYn<q(91)TEST(92)dGVzdH5k/UOlbWzet511HAS6/kutlnF9TdEpA7Gg432=;1;;;
36c1d2e6-f983-4ea6-ae18-201f1d9db692;;8b82076c-ph20-4499-ad6f-8f700098cd9b;7778a9c8-e60b-4f1c-9bdd-19547f49fa0b;5ac0c37a-2ccb-a777-aead-6fc9e38f00aa;;;;(01)04650075195109(21)SF>4bdqwIbV8tfNq+_/E(91)TEST(92)dGVzdH5k/UOlbWzet511HAS6/kutlnF9TdEpA7Gg00u=;1;;;
36c1d2e6-f983-4ea6-ae18-201f1d9db692;;8b82f76c-ml10-4f99-ad1f-8f701198cd1b;bdf8a9c8-e10b-4f1c-9bf1-19547049fe54;43c0c37a-2ccb-a456-aead-6fc9e38f864d;;;;(01)04607940693277(21)*LuQNGi6ix2xS(17)200731(93)dGVz;1;;;
36c1d2e6-f983-4ea6-ae18-201f1d9db692;;8b82f76c-ml10-4f99-ad1f-8f701198cd1b;bdf8a9c8-e10b-4f1c-9bf1-19547049fe54;43c0c37a-2ccb-a456-aead-6fc9e38f864d;;;;(01)04607940693277(21)c+BmoWIb2":V%(17)200731(93)dGVt;1;;;
36c1d2e6-f983-4ea6-ae18-201f1d9db692;;8b82f76c-ml10-4f99-ad1f-8f701198cd1b;bdf8a9c8-e10b-4f1c-9bf1-19547049fe54;43c0c37a-2ccb-a456-aead-6fc9e38f864d;;;;(01)04607940693277(21)ep&,'kW1"0w2E(17)200731(93)dGVa;1;;;
36c1d2e6-f983-4ea6-ae18-201f1d9db692;;8b82f76c-ml10-4f99-ad1f-8f701198cd1b;bdf8a9c8-e10b-4f1c-9bf1-19547049fe54;43c0c37a-2ccb-a456-aead-6fc9e38f864d;;;;(01)04607940693277(21)JJLP?XdHQ7n_'(17)200731(93)dGVb;1;;;
36c1d2e6-f983-4ea6-ae18-201f1d9db692;;8b82f76c-ml10-4f99-ad1f-8f701198cd1b;bdf8a9c8-e10b-4f1c-9bf1-19547049fe54;43c0c37a-2ccb-a456-aead-6fc9e38f864d;;;;(01)04607940693277(21)QZ6hW/NYM,xsi(17)200731(93)dGVr;1;;;
36c1d2e6-f983-4ea6-ae18-201f1d9db692;;8b82f76c-ml20-4f99-ad1f-8f701198cd2c;bdf8a9c8-e10b-4f1c-9bf1-19547049fe55;43c0c37a-2ccb-a456-aead-6fc9e38f334a;;;;(01)04607940693024(21);IiS6/m_W;?wL(17)200731(93)dGVd;1;;;
36c1d2e6-f983-4ea6-ae18-201f1d9db692;;8b82f76c-ml20-4f99-ad1f-8f701198cd2c;bdf8a9c8-e10b-4f1c-9bf1-19547049fe55;43c0c37a-2ccb-a456-aead-6fc9e38f334a;;;;(01)04607940693024(21)DeSX5%vMPf>YP(17)200731(93)dGV4;1;;;
36c1d2e6-f983-4ea6-ae18-201f1d9db692;;8b82f76c-ml20-4f99-ad1f-8f701198cd2c;bdf8a9c8-e10b-4f1c-9bf1-19547049fe55;43c0c37a-2ccb-a456-aead-6fc9e38f334a;;;;(01)04607940693024(21)j9eBpAKmPk<dU(17)200731(93)dGV5;1;;;
36c1d2e6-f983-4ea6-ae18-201f1d9db692;;8b82f76c-ml20-4f99-ad1f-8f701198cd2c;bdf8a9c8-e10b-4f1c-9bf1-19547049fe55;43c0c37a-2ccb-a456-aead-6fc9e38f334a;;;;(01)04607940693024(21)qEEC*7WWyf!Ve(17)200731(93)dGV6;1;;;
36c1d2e6-f983-4ea6-ae18-201f1d9db692;;8b82f76c-ml20-4f99-ad1f-8f701198cd2c;bdf8a9c8-e10b-4f1c-9bf1-19547049fe55;43c0c37a-2ccb-a456-aead-6fc9e38f334a;;;;(01)04607940693024(21)xO1oKlPMOdWN)(17)200731(93)dGV2;1;;;