﻿<CP UTF8>

{ClDotsPerMm = 8}

{LabelWidthInDots = length * ClDotsPerMm}

{LabelHeightInDots = height * ClDotsPerMm}

{LeftOffset = 10}

{(oldPrice!=null)&&(CopEnable==True):{oldPriceString = oldPrice.ToString("N2", new global::System.Globalization.CultureInfo("ru-RU"))};}
{(oldPrice!=null)&&(CopEnable==False):{oldPriceString = oldPrice.ToString("N0", new global::System.Globalization.CultureInfo("ru-RU"))};}
{(Price!=null)&&(CopEnable==True):{PriceString = Price.ToString("N2", new global::System.Globalization.CultureInfo("ru-RU"))};}
{(Price!=null)&&(CopEnable==False):{PriceString = Price.ToString("N0", new global::System.Globalization.CultureInfo("ru-RU"))};}

^XA^MMT^MN{LabelCont:N;W}^PW{LabelWidthInDots}^LL{LabelHeightInDots}^LT0^LS0^MD{Contrast*10}^LH0,0^POI^CI28

^FO0,0
^GB{LabelWidthInDots},{LabelHeightInDots},3,{EnableBorder:B;W}^FS

^FO{LeftOffset},20
^A0,20,24^FD{sellerName}^FS

^FO{LeftOffset},20
^FB{LabelWidthInDots-LeftOffset*2},1,,R
^A0,20,24^FD{data:dd.MM.yyyy}^FS

^FO{LeftOffset+20},50
^FB{LabelWidthInDots-LeftOffset-20},2,,L
^A0,32,36^FD{Name}^FS

^FO{LeftOffset+20},120
^FB{LabelWidthInDots-LeftOffset-20},2,,L
^A0,20^FD{marking}^FS

^FO{LeftOffset+20},160
^FB{LabelWidthInDots-LeftOffset-20},2,,L
^A0,20^FD{descr}^FS

^FO{LabelWidthInDots/4-17/2*oldPriceString.Length:N0},{LabelHeightInDots-140}
^A0,30,34^FD{oldPriceString}^FS

^FO{LabelWidthInDots/4-10-17/2*oldPriceString.Length:N0},{LabelHeightInDots-132}
^GB{10+17*oldPriceString.Length:N0},1,3,{(oldPrice!=null):B;W}^FS

^FO{LeftOffset},{LabelHeightInDots-100}
^FB{LabelWidthInDots/2-LeftOffset},1,,C
^A0,48,52^FD{PriceString}-^FS

^FO{LabelWidthInDots/2+20},{LabelHeightInDots-120}^BY2
^B{global::Cleverence.Barcoding.EANUPC.IsEAN13orUPC(Barcode):E;C}N,50,Y
^FD{Barcode}^FS

^XZ

{ClDotsPerMm = null}

{LabelWidthInDots = null}

{LabelHeightInDots = null}

{LeftOffset = null}