﻿<CP UTF8>



{ClDotsPerMm = 8}

{LabelWidthInDots = length * ClDotsPerMm}

{LabelHeightInDots = height * ClDotsPerMm}




{SelectedProductProductId = 666}

{SelectedProduct.Product.ВидАкции > 0 && SelectedProduct.Product.ЦенаПоАкции > 0 : {Price = SelectedProduct.Product.ЦенаПоАкции};}

{Price != null : {nP = global :: System.Math.Floor(Price)}{PriceString = nP.ToString()};}

{Price != null : {Penny = (Price - nP) * 100};}

{SelectedProduct.Product.ВидАкции > 0 && SelectedProduct.Product.Цена > 0 : {oldPrice = SelectedProduct.Product.Цена};}

{oldPrice != null : {OldnP = global :: System.Math.Floor(oldPrice)}{OldPriceString = OldnP.ToString()};}{oldPrice != null : {OldPenny = (oldPrice - OldnP) * 100};}

{SelectedProduct.Product.ДатаОкончанияАкции != null : {ДатаОкончанияАкции = SelectedProduct.Product.ДатаОкончанияАкции}; {ДатаОкончанияАкции = null}}



{CopDelimiter = 4}

{OldCopDelimiter = 2}

{OldPriceDelimiter = 20}



{PriceInDots = 60 * PriceString.Length}

{OldPriceInDots = 20 * OldPriceString.Length}

{CopEnable == true : {CL = 2 * 25 + CopDelimiter} {OCL = 2 * 10 + OldCopDelimiter}; {CL = 0} {OCL = 0}}

{oldPrice != null : {OP = OldPriceInDots + OldPriceDelimiter + OCL}; OP = 0}

{PriceOffsetX = (LabelHeightInDots + 60) / 2 - ((CL + OP) + PriceInDots) / 2}

{CopOffsetX = PriceOffsetX + PriceInDot + CopDelimiter}

{OldPriceOffsetX = CopOffsetX + CopInDot + OldPriceDelimiter}

{OldCopOffsetX = OldPriceOffsetX + OldPriceInDot + OldCopDelimiter}



^XA^MMT^MN{LabelCont:N;Y}^PW{LabelWidthInDots}^LL{LabelHeightInDots}^LT0^LS0^LH0,0^PON^CI28

^FO{LabelWidthInDots-70},60
^FB{LabelHeightInDots-60},2,,C
^A0R,30^FD{Name}^FS

^FO110,{PriceOffsetX}
^A0R,140,120^FD{PriceString}^FS

^FO190,{PriceOffsetX+PriceInDots+CopDelimiter}
^A0R,60,50^FD{CopEnable==true:{Penny:(0:00)};}^FS

^FO150,{PriceOffsetX+PriceInDots+CopDelimiter}
^A0R,40^FDp.^FS

^FO230,{PriceOffsetX+PriceInDots+CopDelimiter+2*25+OldPriceDelimiter}
^A0R,50,40^FD{OldPriceString}^FS

^FO250,{PriceOffsetX+PriceInDots+CopDelimiter+2*25+OldPriceDelimiter+OldPriceInDots+OldCopDelimiter}
^A0R,30,20^FD{CopEnable==true:{OldPenny:(0:00)};}^FS

^FO240,{PriceOffsetX+PriceInDots+CopDelimiter+2*25+OldPriceDelimiter-10}
^GD40,{OldPriceInDots+OldCopDelimiter+20+10},4,B,L^FS

^FO150,{PriceOffsetX+PriceInDots+CopDelimiter+50}
^A0R,18^FDдо {ДатаОкончанияАкции!=null:{ДатаОкончанияАкции};{data:dd.MM.yyyy}}^FS

^FO30,10^BY2
^B{global::Cleverence.Barcoding.EANUPC.IsEAN13orUPC(Barcode)==true:E;C}N,50,N
^FD{Barcode}^FS

^FO20,116
^A0R,40^FR^FDA^FS

^FO20,100
^FR^GB50,54,26,B,2^FS

^FO20,174
^FB{LabelHeightInDots-174},2,,L
^A0R,18^FD{sellerName} / {SelectedProductProductId} / {data:dd.MM.yyyy}^FS

^FO1,1
^GB{LabelWidthInDots},{LabelHeightInDots},2,{EnableBorder!=null:B;W}^FS

^XZ

{ClDotsPerMm = null}

{LabelWidthInDots = null}

{LabelHeightInDots = null}

{nP = null}

{OldnP = null}

{PriceString = null}

{OldPriceString = null}

{Penny = null}

{OldPenny = null}

{PromoCondition = null}

{ДатаОкончанияАкции = null}

{CopDelimiter = null}

{OldCopDelimiter = null}

{OldPriceDelimiter = null}

{PriceInDots = null}

{OldPriceInDots = null}

{PriceOffsetX = null}

{CopOffsetX = null}

{OldPriceOffsetX = null}

{OldCopOffsetX = null}