﻿#{Document}
Name;Barcode;AutoAppointed;КонтрольКолва;КонтрольТовара;РаботаСКоробками;ЗаписыватьКоробки;
#{DeclaredItems}
{Item.ProductId};{Item.ProductBarcode};{Item.ProductName};{Item.PackingId};{Item.SSCC};{Item.DeclaredQuantity};{Item.CurrentQuantity};{Item.ИдЕдиницыИзмерения};{Item.ИмяХарактеристики};{Item.ИдХарактеристики};{Item.Цена};{Item.Маркировка};{Item.GTIN};{Item.Марка};{Item.МаркаИСМП};{Item.ШтрихкодБлока};